NUMER:
31
NAZWA:
miecz
OPIS:
Zwykly zelazny miecz.
WAGA:
1
EFEKTY:
0
GDZIE:
6
PANCERZ:
-1
ZMIANA:
0
0
0
0
0
0
0
0
WYMAGANIA:
0
0
0
0
0
0
MAGIA:
0
OBRAZENIA:
2
ATAKI:
4
1
2
3
4
